<svg xmlns="http://www.w3.org/2000/svg" version="1.0" width="2955.000000" height="790.000000" preserveAspectRatio="xMidYMid meet" style=""><rect id="backgroundrect" width="100%" height="100%" x="0" y="0" fill="none" stroke="none"/>
<metadata>
Created by potrace 1.16, written by Peter Selinger 2001-2019
</metadata>

<g class="currentLayer" style=""><title>Layer 1</title><g transform="translate(0,790) scale(0.10000000149011612,-0.10000000149011612) " fill="#ffffff" stroke="none" id="svg_1" class="selected" fill-opacity="1">
<path d="M25475 6983 c-128 -52 -261 -197 -345 -376 -72 -153 -114 -360 -126 -622 -7 -143 2 -403 15 -423 4 -6 23 -18 43 -27 l37 -15 94 79 c302 254 510 526 588 766 31 98 40 406 14 484 -34 103 -102 151 -215 150 -36 0 -83 -7 -105 -16z m165 -98 c57 -29 65 -61 64 -250 0 -163 -1 -174 -30 -256 -70 -198 -214 -392 -464 -622 l-95 -88 -8 73 c-9 91 0 309 19 448 37 278 115 458 260 603 96 95 186 127 254 92z" id="svg_2" fill="#ffffff" fill-opacity="1"/>
<path d="M2288 5954 c-174 -42 -310 -172 -374 -359 -24 -69 -28 -95 -27 -195 0 -97 4 -128 27 -197 107 -328 452 -467 759 -306 282 149 387 485 239 767 -46 88 -145 189 -229 234 -123 65 -272 86 -395 56z m221 -89 c244 -58 413 -301 373 -537 -26 -150 -120 -278 -258 -350 -315 -165 -650 56 -647 427 1 224 134 405 336 460 68 18 118 18 196 0z" id="svg_3" fill="#ffffff" fill-opacity="1"/>
<path d="M8072 5378 c-12 -6 -25 -23 -29 -37 -3 -14 -1 -724 6 -1579 7 -854 11 -1555 9 -1556 -3 -3 -821 954 -2250 2632 -377 442 -400 467 -434 470 -24 2 -42 -3 -55 -14 -19 -17 -19 -58 -19 -1674 0 -1592 1 -1658 18 -1673 17 -15 61 -17 430 -17 387 0 413 1 430 18 23 23 26 121 43 1252 6 415 14 788 17 828 l7 72 910 -1067 c501 -587 918 -1075 928 -1085 17 -18 72 -24 93 -10 6 4 16 16 21 27 7 13 6 505 -3 1505 -7 817 -13 1572 -13 1678 -1 191 -1 193 -26 217 -26 27 -47 30 -83 13z m-2143 -908 l170 -200 -5 -183 c-5 -195 -34 -1863 -34 -1959 l0 -58 -155 0 -155 0 0 1300 c0 715 2 1300 4 1300 3 0 81 -90 175 -200z" id="svg_4" fill="#ffffff" fill-opacity="1"/>
<path d="M27272 5330 c-441 -62 -742 -358 -742 -730 0 -362 270 -663 749 -837 53 -19 203 -66 334 -104 455 -132 604 -204 768 -369 139 -139 204 -320 182 -500 -38 -302 -245 -544 -562 -660 -504 -184 -1073 69 -1284 570 -44 103 -51 114 -80 125 -37 12 -78 -10 -88 -47 -14 -52 68 -237 163 -367 226 -310 562 -481 946 -481 145 0 213 9 339 46 273 79 505 268 627 511 62 124 80 208 81 368 0 119 -3 151 -23 215 -61 197 -200 364 -407 490 -134 82 -267 134 -549 216 -316 91 -435 133 -571 199 -259 127 -412 292 -465 501 -35 135 -22 236 47 367 115 218 372 349 688 350 144 0 236 -14 371 -58 278 -91 501 -263 659 -511 48 -74 89 -88 138 -46 31 27 21 69 -40 161 -70 105 -260 298 -360 364 -226 149 -462 225 -728 232 -71 2 -158 0 -193 -5z" id="svg_5" fill="#ffffff" fill-opacity="1"/>
<path d="M13446 5308 c-14 -20 -16 -195 -16 -1669 0 -1570 1 -1648 18 -1669 l18 -22 438 -2 c422 -1 438 0 452 18 18 25 18 243 0 1361 -7 440 -12 801 -12 802 1 1 24 -26 51 -60 27 -34 188 -223 358 -419 307 -356 309 -358 348 -358 47 0 -37 -100 764 912 l620 783 3 -1499 c2 -1378 3 -1501 19 -1518 22 -24 77 -24 103 2 20 20 20 33 20 1633 0 1801 6 1657 -70 1657 -21 0 -45 -6 -52 -14 -8 -7 -326 -408 -708 -890 -381 -482 -697 -876 -701 -876 -10 0 -478 542 -673 780 -303 369 -780 945 -834 1008 -49 56 -58 62 -93 62 -28 0 -42 -6 -53 -22z m144 -1748 c0 -973 -3 -1470 -10 -1470 -7 0 -10 389 -10 1148 0 1024 7 1792 17 1792 1 0 3 -661 3 -1470z m524 820 l86 -105 0 -95 c0 -52 7 -509 15 -1015 8 -506 15 -955 15 -997 l0 -78 -105 0 -105 0 0 1202 c0 661 2 1199 4 1197 2 -2 43 -51 90 -109z" id="svg_6" fill="#ffffff" fill-opacity="1"/>
<path d="M22158 5230 l-28 -21 0 -1620 c0 -1606 0 -1619 20 -1639 19 -19 33 -20 528 -20 449 0 522 2 639 19 612 91 1067 387 1295 846 111 221 156 444 145 705 -30 682 -503 1280 -1237 1563 -330 128 -600 175 -1050 184 -282 5 -285 5 -312 -17z m634 -138 c32 -5 61 -11 65 -15 4 -5 9 -683 11 -1507 l4 -1500 -301 0 -301 0 0 1522 0 1521 233 -7 c127 -4 258 -10 289 -14z m403 -77 c710 -180 1229 -651 1380 -1254 32 -129 49 -295 41 -406 -40 -533 -356 -942 -893 -1156 -167 -66 -482 -129 -649 -129 l-64 0 0 1495 0 1495 28 -6 c15 -3 86 -21 157 -39z" id="svg_7" fill="#ffffff" fill-opacity="1"/>
<path d="M10615 5199 c-311 -19 -637 -134 -895 -316 -275 -194 -507 -506 -609 -820 -227 -693 39 -1436 662 -1852 99 -67 296 -162 412 -200 352 -114 750 -114 1105 0 130 41 355 155 470 236 107 77 282 245 356 343 158 209 262 447 311 715 22 122 22 387 0 515 -60 347 -213 639 -466 890 -136 134 -260 223 -436 309 -216 107 -428 166 -635 177 -52 3 -108 6 -125 7 -16 2 -84 0 -150 -4z m254 -149 c283 -25 534 -113 771 -271 129 -85 326 -282 409 -409 114 -174 191 -364 228 -563 25 -136 23 -381 -5 -513 -43 -202 -112 -368 -223 -535 -81 -121 -281 -323 -404 -406 -608 -411 -1409 -364 -1958 114 -251 219 -428 533 -488 863 -18 98 -18 372 0 470 59 328 237 643 482 857 262 227 577 362 919 393 125 11 144 11 269 0z" id="svg_8" fill="#ffffff" fill-opacity="1"/>
<path d="M19398 5173 c-14 -16 -1728 -3006 -1780 -3106 -17 -32 -19 -42 -8 -67 13 -32 39 -44 86 -38 33 4 -1 -52 419 683 169 297 313 545 319 552 8 8 165 9 646 0 l636 -11 334 -614 c184 -338 342 -618 351 -623 9 -4 222 -9 475 -11 l458 -3 15 27 c12 21 13 33 5 55 -15 41 -1833 3123 -1857 3151 -25 27 -77 30 -99 5z m-33 -1341 c147 -271 265 -495 263 -498 -6 -5 -1098 13 -1104 18 -1 2 124 225 279 496 155 270 284 488 288 484 3 -4 127 -229 274 -500z" id="svg_9" fill="#ffffff" fill-opacity="1"/>
<path d="M2368 4713 c-21 -25 -21 -122 0 -145 23 -26 76 -23 90 5 15 29 8 137 -9 148 -23 14 -65 10 -81 -8z" id="svg_10" fill="#ffffff" fill-opacity="1"/>
<path d="M1542 4390 c-889 -5 -871 -4 -872 -43 0 -17 29 -59 505 -733 267 -377 485 -688 485 -690 0 -2 -135 -4 -299 -4 -259 0 -302 -2 -315 -16 -19 -18 -21 -45 -4 -62 9 -9 99 -12 343 -12 183 0 336 -4 345 -9 8 -6 156 -206 330 -447 173 -240 323 -442 333 -448 12 -8 22 -8 35 0 9 6 161 209 337 452 l320 441 357 0 c310 1 359 3 372 17 20 19 21 48 3 63 -9 7 -118 12 -335 13 l-321 3 518 707 c285 389 521 714 525 723 3 9 1 25 -4 36 -10 19 -31 19 -908 17 -493 -2 -1281 -5 -1750 -8z m2518 -85 c0 -2 -235 -325 -522 -716 -288 -391 -659 -898 -825 -1126 l-302 -414 -54 73 c-190 259 -641 890 -1060 1483 l-487 690 847 5 c1346 8 2403 10 2403 5z" id="svg_11" fill="#ffffff" fill-opacity="1"/>
</g></g></svg>